IS415–GAA - Take-home Exercise 2: Application of Spatial and Spatio-temporal Analysis Methods to Discover the Distribution of Dengue Fever in Tainan City, Taiwan
…
wm_q <- village_sf %>%
  mutate(nb = st_contiguity(geometry),
         wt = st_weights(nb,
                         style = "W"),
         .before = 1) 

wm_q

Simple feature collection with 249 features and 4 fields
Geometry type: GEOMETRY
Dimension:     XY
Bounding box:  xmin: 120.0627 ymin: 22.89401 xmax: 120.2925 ymax: 23.09144
Geodetic CRS:  TWD97
# A tibble: 249 × 5
   nb        wt        VILLENG     grp_cnt                              geometry
 * <nb>      <list>    <chr>         <int>                         <POLYGON [°]>
 1 <int [5]> <dbl [5]> Andong Vil.      83 ((120.2164 23.0404, 120.2154 23.0403…
 2 <int [5]> <dbl [5]> Anfu Vil.       311 ((120.1932 23.0294, 120.1929 23.0293…
 3 <int [7]> <dbl [7]> Anhe Vil.        86 ((120.2258 23.04424, 120.2219 23.038…
 4 <int [3]> <dbl [3]> Ankang Vil.     102 ((120.2269 23.01413, 120.2274 23.013…
 5 <int [4]> <dbl [4]> Anqing Vil.     109 ((120.2113 23.04414, 120.2111 23.044…
 6 <int [3]> <dbl [3]> Anshun Vil.      35 ((120.2136 23.05601, 120.2136 23.055…
 7 <int [8]> <dbl [8]> Anxi Vil.       141 ((120.2123 23.03689, 120.212 23.0368…
 8 <int [5]> <dbl [5]> Bao'an Vil.      33 ((120.2304 22.93544, 120.2301 22.935…
 9 <int [6]> <dbl [6]> Beihua Vil.       1 ((120.2034 23.00257, 120.2032 23.002…
10 <int [4]> <dbl [4]> Beimen Vil.       8 ((120.2176 23.02032, 120.2173 23.020…
# ℹ 239 more rows
…
# Convert polygons/multipolygons to points
village_sf$geometry_point <- st_centroid(village_sf$geometry)

# Verify the result
print(village_sf)

Simple feature collection with 249 features and 4 fields
Active geometry column: geometry
Geometry type: GEOMETRY
Dimension:     XY
Bounding box:  xmin: 120.0627 ymin: 22.89401 xmax: 120.2925 ymax: 23.09144
Geodetic CRS:  TWD97
# A tibble: 249 × 6
   VILLENG     grp_cnt                            geometry Z.grp_cnt lag_grp_cnt
 * <chr>         <int>                       <POLYGON [°]>     <dbl>       <dbl>
 1 Andong Vil.      83 ((120.2164 23.0404, 120.2154 23.04…     0.156       103. 
 2 Anfu Vil.       311 ((120.1932 23.0294, 120.1929 23.02…     3.21        134. 
 3 Anhe Vil.        86 ((120.2258 23.04424, 120.2219 23.0…     0.196        76.3
 4 Ankang Vil.     102 ((120.2269 23.01413, 120.2274 23.0…     0.411       119. 
 5 Anqing Vil.     109 ((120.2113 23.04414, 120.2111 23.0…     0.505       104  
 6 Anshun Vil.      35 ((120.2136 23.05601, 120.2136 23.0…    -0.488        36.3
 7 Anxi Vil.       141 ((120.2123 23.03689, 120.212 23.03…     0.934       115. 
 8 Bao'an Vil.      33 ((120.2304 22.93544, 120.2301 22.9…    -0.515       128. 
 9 Beihua Vil.       1 ((120.2034 23.00257, 120.2032 23.0…    -0.944        45  
10 Beimen Vil.       8 ((120.2176 23.02032, 120.2173 23.0…    -0.850        95.2
# ℹ 239 more rows
# ℹ 1 more variable: geometry_point <POINT [°]>
…
